{
  "result": {
    "item": [
      {
        "code": [
          "Ma3(Ma3(Ma6)Ma6)Mb4GNb4GN"
        ],
        "carbID": [
          "carbNlink_20482_D000"
        ],
        "AN": [
          "G03652TR"
        ]
      },
      {
        "code": [
          "Ma2Ma3(Ma3(Ma6)Ma6)Mb4GNb4GN"
        ],
        "carbID": [
          "carbNlink_40082_D000"
        ],
        "AN": [
          "G19747OA"
        ]
      },
      {
        "code": [
          "A??GN??Ma3(GN??Ma6)Mb4GNb4GN"
        ],
        "carbID": [
          "carbNlink_35552_A"
        ],
        "AN": [
          "G55530MC"
        ]
      },
      {
        "code": [
          "GN??Ma3(Ma3(Ma6)Ma6)Mb4GNb4GN"
        ],
        "carbID": [
          "carbNlink_35522_A"
        ],
        "AN": [
          "G35916SR"
        ]
      },
      {
        "code": [
          "GN??Ma3(GN??Ma6)Mb4GNb4(Fa6)GN"
        ],
        "carbID": [
          "carbNlink_35426_A"
        ],
        "AN": [
          "G58886BN"
        ]
      },
      {
        "code": [
          "Ma2Ma3(Ma3(Ma6)Ma6)Mb4GNb4GN,M"
        ],
        "carbID": [
          "carbNlink_35062_A"
        ],
        "AN": [
          "null"
        ]
      },
      {
        "code": [
          "GNb4(GN??Ma3)(GN??Ma6)Mb4GNb4GN"
        ],
        "carbID": [
          "carbNlink_35547_A"
        ],
        "AN": [
          "G90484GL"
        ]
      },
      {
        "code": [
          "A??GN??Ma3(A??GN??Ma6)Mb4GNb4GN"
        ],
        "carbID": [
          "carbNlink_35563_A"
        ],
        "AN": [
          "G58521VQ"
        ]
      },
      {
        "code": [
          "Ma2Ma3(Ma3(Ma6)Ma6)Mb4GNb4GN,M,M"
        ],
        "carbID": [
          "carbNlink_35061_A"
        ],
        "AN": [
          "null"
        ]
      },
      {
        "code": [
          "A??GN??Ma3(GN??Ma6)Mb4GNb4(Fa6)GN"
        ],
        "carbID": [
          "carbNlink_35428_A"
        ],
        "AN": [
          "G99873PN"
        ]
      },
      {
        "code": [
          "NN??A??GN??Ma3(Ma6)Mb4GNb4(Fa6)GN"
        ],
        "carbID": [
          "carbNlink_35289_A"
        ],
        "AN": [
          "G54811KN"
        ]
      },
      {
        "code": [
          "GNb4(A??GN??Ma3)(GN??Ma6)Mb4GNb4GN"
        ],
        "carbID": [
          "carbNlink_35548_A"
        ],
        "AN": [
          "G74246AM"
        ]
      },
      {
        "code": [
          "NN??A??GN??Ma3(A??GN??Ma6)Mb4GNb4GN"
        ],
        "carbID": [
          "carbNlink_35566_A"
        ],
        "AN": [
          "G84553QQ"
        ]
      },
      {
        "code": [
          "GNb4(GN??Ma3)(GN??Ma6)Mb4GNb4(Fa6)GN"
        ],
        "carbID": [
          "carbNlink_35418_A"
        ],
        "AN": [
          "G58284AM"
        ]
      },
      {
        "code": [
          "A??GN??Ma3(A??GN??Ma6)Mb4GNb4(Fa6)GN"
        ],
        "carbID": [
          "carbNlink_35470_A"
        ],
        "AN": [
          "G94873VZ"
        ]
      },
      {
        "code": [
          "NN??A??GN??Ma3(Ma3(Ma6)Ma6)Mb4GNb4GN"
        ],
        "carbID": [
          "carbNlink_35525_A"
        ],
        "AN": [
          "G45957IW"
        ]
      },
      {
        "code": [
          "GNb4(A??GN??Ma3)(A??GN??Ma6)Mb4GNb4GN"
        ],
        "carbID": [
          "carbNlink_35557_A"
        ],
        "AN": [
          "G54341KJ"
        ]
      },
      {
        "code": [
          "Ma2Ma2Ma3(Ma2Ma3(Ma2Ma6)Ma6)Mb4GNb4GN"
        ],
        "carbID": [
          "carbNlink_30017_A"
        ],
        "AN": [
          "G56202TA"
        ]
      },
      {
        "code": [
          "NN??A??GN??Ma3(GN??Ma6)Mb4GNb4(Fa6)GN"
        ],
        "carbID": [
          "carbNlink_35430_A"
        ],
        "AN": [
          "G97052YY"
        ]
      },
      {
        "code": [
          "GNb4(NN??A??GN??Ma3)(GN??Ma6)Mb4GNb4GN"
        ],
        "carbID": [
          "carbNlink_35549_A"
        ],
        "AN": [
          "G41731DX"
        ]
      },
      {
        "code": [
          "GNb4(A??GN??Ma3)(GN??Ma6)Mb4GNb4(Fa6)GN"
        ],
        "carbID": [
          "carbNlink_35422_A"
        ],
        "AN": [
          "G61500DM"
        ]
      },
      {
        "code": [
          "NN??A??GN??Ma3(NN??A??GN??Ma6)Mb4GNb4GN"
        ],
        "carbID": [
          "carbNlink_35577_A"
        ],
        "AN": [
          "G27817LK"
        ]
      },
      {
        "code": [
          "NN??A??GN??Ma3(A??GN??Ma6)Mb4GNb4(Fa6)GN"
        ],
        "carbID": [
          "carbNlink_35474_A"
        ],
        "AN": [
          "G15687DE"
        ]
      },
      {
        "code": [
          "GNb4(A??GN??Ma3)(A??GN??Ma6)Mb4GNb4(Fa6)GN"
        ],
        "carbID": [
          "carbNlink_35456_A"
        ],
        "AN": [
          "G81348LS"
        ]
      },
      {
        "code": [
          "GNb4(NN??A??GN??Ma3)(Ma3(Ma6)Ma6)Mb4GNb4GN"
        ],
        "carbID": [
          "carbNlink_35558_A"
        ],
        "AN": [
          "G50791ES"
        ]
      },
      {
        "code": [
          "NN??A??GN??Ma3(A??GN??Ma6)Mb4GNb4(Fa6)GN,F"
        ],
        "carbID": [
          "carbNlink_35058_A"
        ],
        "AN": [
          "null"
        ]
      },
      {
        "code": [
          "GNb4(A??GN??Ma3)(Ma3(Ma6)Ma6)Mb4GNb4(Fa6)GN"
        ],
        "carbID": [
          "carbNlink_35292_A"
        ],
        "AN": [
          "G17960CK"
        ]
      },
      {
        "code": [
          "NN??A??GN??(A??GN??)Ma3(A??GN??Ma6)Mb4GNb4GN"
        ],
        "carbID": [
          "carbNlink_35560_A"
        ],
        "AN": [
          "G64901XZ"
        ]
      },
      {
        "code": [
          "NN??A??GN??Ma3(NN??A??GN??Ma6)Mb4GNb4(Fa6)GN"
        ],
        "carbID": [
          "carbNlink_35513_A"
        ],
        "AN": [
          "G00318AV"
        ]
      },
      {
        "code": [
          "A??GN??(A??GN??)Ma3(A??GN??Ma6)Mb4GNb4(Fa6)GN"
        ],
        "carbID": [
          "carbNlink_35461_A"
        ],
        "AN": [
          "G61698UE"
        ]
      },
      {
        "code": [
          "GNb4(NN??A??GN??Ma3)(A??GN??Ma6)Mb4GNb4(Fa6)GN"
        ],
        "carbID": [
          "carbNlink_35457_A"
        ],
        "AN": [
          "G18890TE"
        ]
      },
      {
        "code": [
          "NN??A??GN??(NN??A??GN??)Ma3(A??GN??Ma6)Mb4GNb4GN"
        ],
        "carbID": [
          "carbNlink_35562_A"
        ],
        "AN": [
          "G09494SH"
        ]
      },
      {
        "code": [
          "NN??A??GN??(A??GN??)Ma3(A??GN??Ma6)Mb4GNb4(Fa6)GN"
        ],
        "carbID": [
          "carbNlink_35463_A"
        ],
        "AN": [
          "G20694YW"
        ]
      },
      {
        "code": [
          "GNb4(NN??A??GN??Ma3)(NN??A??GN??Ma6)Mb4GNb4(Fa6)GN"
        ],
        "carbID": [
          "carbNlink_35505_A"
        ],
        "AN": [
          "G11801TI"
        ]
      },
      {
        "code": [
          "GNb4(A??GN??(A??GN??)Ma3)(A??GN??Ma6)Mb4GNb4(Fa6)GN"
        ],
        "carbID": [
          "carbNlink_35451_A"
        ],
        "AN": [
          "null"
        ]
      },
      {
        "code": [
          "NN??A??GN??(NN??A??GN??)Ma3(NN??A??GN??Ma6)Mb4GNb4GN"
        ],
        "carbID": [
          "carbNlink_35576_A"
        ],
        "AN": [
          "G44583JH"
        ]
      },
      {
        "code": [
          "NN??A??GN??(A??GN??)Ma3(A??GN??(A??GN??)Ma6)Mb4GNb4GN"
        ],
        "carbID": [
          "carbNlink_35534_A"
        ],
        "AN": [
          "G91077AF"
        ]
      },
      {
        "code": [
          "NN??A??GN??(NN??A??GN??)Ma3(A??GN??Ma6)Mb4GNb4(Fa6)GN"
        ],
        "carbID": [
          "carbNlink_35467_A"
        ],
        "AN": [
          "G94737YG"
        ]
      },
      {
        "code": [
          "A??GN??(A??GN??)Ma3(A??GN??(A??GN??)Ma6)Mb4GNb4(Fa6)GN"
        ],
        "carbID": [
          "carbNlink_35355_A"
        ],
        "AN": [
          "G96219NW"
        ]
      },
      {
        "code": [
          "GNb4(NN??A??GN??(A??GN??)Ma3)(A??GN??Ma6)Mb4GNb4(Fa6)GN"
        ],
        "carbID": [
          "carbNlink_35452_A"
        ],
        "AN": [
          "G58585VB"
        ]
      },
      {
        "code": [
          "NN??A??GN??Ma3(NN??A??GN??(NN??A??GN??)Ma6)Mb4GNb4(Fa6)GN"
        ],
        "carbID": [
          "carbNlink_35406_A"
        ],
        "AN": [
          "G35887PW"
        ]
      },
      {
        "code": [
          "NN??A??GN??(A??GN??)Ma3(A??GN??(A??GN??)Ma6)Mb4GNb4(Fa6)GN"
        ],
        "carbID": [
          "carbNlink_35357_A"
        ],
        "AN": [
          "G57814LX"
        ]
      },
      {
        "code": [
          "NN??A??GN??(NN??A??GN??)Ma3(A??GN??(A??GN??)Ma6)Mb4GNb4(Fa6)GN"
        ],
        "carbID": [
          "carbNlink_35359_A"
        ],
        "AN": [
          "G80228NL"
        ]
      },
      {
        "code": [
          "NN??A??(Fa3)GN??(NN??A??GN??)Ma3(NN??A??GN??Ma6)Mb4GNb4(Fa6)GN"
        ],
        "carbID": [
          "carbNlink_35508_A"
        ],
        "AN": [
          "G48992SV"
        ]
      },
      {
        "code": [
          "NN??A??GN??(NN??A??GN??)Ma3(NN??A??GN??(A??GN??)Ma6)Mb4GNb4(Fa6)GN"
        ],
        "carbID": [
          "carbNlink_35363_A"
        ],
        "AN": [
          "G54645BJ"
        ]
      },
      {
        "code": [
          "NN??A??GN??(A??GN??)Ma3(A??GN??(A??GN??A??GN??)Ma6)Mb4GNb4(Fa6)GN,NN"
        ],
        "carbID": [
          "carbNlink_35064_A"
        ],
        "AN": [
          "null"
        ]
      },
      {
        "code": [
          "NN??A??GN??(NN??A??GN??)Ma3(NN??A??GN??(NN??A??GN??)Ma6)Mb4GNb4(Fa6)GN"
        ],
        "carbID": [
          "carbNlink_35405_A"
        ],
        "AN": [
          "G92288VU"
        ]
      }
    ]
  }
}