{
  "result": {
    "item": [
      {
        "code": [
          "Ma3(Ma3(Ma6)Ma6)Mb4GNb4GN"
        ],
        "carbID": [
          "carbNlink_20482_D000"
        ],
        "AN": [
          "G03652TR"
        ]
      },
      {
        "code": [
          "GN??Ma3(Ma6)Mb4GNb4(Fa6)GN"
        ],
        "carbID": [
          "carbNlink_35288_A"
        ],
        "AN": [
          "G02923VP"
        ]
      },
      {
        "code": [
          "Ma2Ma3(Ma3(Ma6)Ma6)Mb4GNb4GN"
        ],
        "carbID": [
          "carbNlink_40082_D000"
        ],
        "AN": [
          "G19747OA"
        ]
      },
      {
        "code": [
          "GN??Ma3(GN??Ma6)Mb4GNb4(Fa6)GN"
        ],
        "carbID": [
          "carbNlink_35426_A"
        ],
        "AN": [
          "G58886BN"
        ]
      },
      {
        "code": [
          "Ma2Ma3(Ma3(Ma6)Ma6)Mb4GNb4GN,M"
        ],
        "carbID": [
          "carbNlink_35062_A"
        ],
        "AN": [
          "null"
        ]
      },
      {
        "code": [
          "GNb4(GN??Ma3)(GN??Ma6)Mb4GNb4GN"
        ],
        "carbID": [
          "carbNlink_35547_A"
        ],
        "AN": [
          "G90484GL"
        ]
      },
      {
        "code": [
          "Ma2Ma3(Ma3(Ma6)Ma6)Mb4GNb4GN,M,M"
        ],
        "carbID": [
          "carbNlink_35061_A"
        ],
        "AN": [
          "null"
        ]
      },
      {
        "code": [
          "GNb4(GN??Ma3)(GN??Ma6)Mb4GNb4(Fa6)GN"
        ],
        "carbID": [
          "carbNlink_35418_A"
        ],
        "AN": [
          "G58284AM"
        ]
      },
      {
        "code": [
          "A??GN??Ma3(A??GN??Ma6)Mb4GNb4(Fa6)GN"
        ],
        "carbID": [
          "carbNlink_35470_A"
        ],
        "AN": [
          "G94873VZ"
        ]
      },
      {
        "code": [
          "Ma2Ma2Ma3(Ma2Ma3(Ma2Ma6)Ma6)Mb4GNb4GN"
        ],
        "carbID": [
          "carbNlink_30017_A"
        ],
        "AN": [
          "G56202TA"
        ]
      },
      {
        "code": [
          "GNb4(A??GN??Ma3)(GN??Ma6)Mb4GNb4(Fa6)GN"
        ],
        "carbID": [
          "carbNlink_35422_A"
        ],
        "AN": [
          "G61500DM"
        ]
      },
      {
        "code": [
          "NJ??A??GN??Ma3(NJ??A??GN??Ma6)Mb4GNb4GN"
        ],
        "carbID": [
          "carbNlink_35573_A"
        ],
        "AN": [
          "G57914GV"
        ]
      },
      {
        "code": [
          "A??(Fa3)GN??Ma3(A??GN??Ma6)Mb4GNb4(Fa6)GN"
        ],
        "carbID": [
          "carbNlink_35468_A"
        ],
        "AN": [
          "G94568XL"
        ]
      },
      {
        "code": [
          "GNb4(A??GN??Ma3)(A??GN??Ma6)Mb4GNb4(Fa6)GN"
        ],
        "carbID": [
          "carbNlink_35456_A"
        ],
        "AN": [
          "G81348LS"
        ]
      },
      {
        "code": [
          "GNb4(A??(Fa3)GN??Ma3)(GN??Ma6)Mb4GNb4(Fa6)GN"
        ],
        "carbID": [
          "carbNlink_35419_A"
        ],
        "AN": [
          "G32205YW"
        ]
      },
      {
        "code": [
          "GNb4(A??(Fa3)GN??Ma3)(A??GN??Ma6)Mb4GNb4(Fa6)GN"
        ],
        "carbID": [
          "carbNlink_35454_A"
        ],
        "AN": [
          "G64188CP"
        ]
      },
      {
        "code": [
          "A??(Fa3)GN??(A??GN??)Ma3(A??GN??Ma6)Mb4GNb4(Fa6)GN"
        ],
        "carbID": [
          "carbNlink_35460_A"
        ],
        "AN": [
          "G81384WY"
        ]
      },
      {
        "code": [
          "GNb4(A??(Fa3)GN??Ma3)(A??(Fa3)GN??Ma6)Mb4GNb4(Fa6)GN"
        ],
        "carbID": [
          "carbNlink_35435_A"
        ],
        "AN": [
          "G43997BS"
        ]
      },
      {
        "code": [
          "GNb4(A??(Fa3)GN??(A??GN??)Ma3)(GN??Ma6)Mb4GNb4(Fa6)GN"
        ],
        "carbID": [
          "carbNlink_35414_A"
        ],
        "AN": [
          "G76975IV"
        ]
      },
      {
        "code": [
          "A??(Fa3)GN??(A??GN??)Ma3(A??(Fa3)GN??Ma6)Mb4GNb4(Fa6)GN"
        ],
        "carbID": [
          "carbNlink_35439_A"
        ],
        "AN": [
          "G59303WPf"
        ]
      },
      {
        "code": [
          "GNb4(A??(Fa3)GN??(A??GN??)Ma3)(A??GN??Ma6)Mb4GNb4(Fa6)GN"
        ],
        "carbID": [
          "carbNlink_35450_A"
        ],
        "AN": [
          "null"
        ]
      },
      {
        "code": [
          "GNb4(A??(Fa3)GN??(A??(Fa3)GN??)Ma3)(GN??Ma6)Mb4GNb4(Fa6)GN"
        ],
        "carbID": [
          "carbNlink_35412_A"
        ],
        "AN": [
          "G95499ZQ"
        ]
      },
      {
        "code": [
          "A??(Fa3)GN??(A??(Fa3)GN??)Ma3(A??(Fa3)GN??Ma6)Mb4GNb4(Fa6)GN"
        ],
        "carbID": [
          "carbNlink_35437_A"
        ],
        "AN": [
          "G05982NR"
        ]
      },
      {
        "code": [
          "GNb4(A??(Fa3)GN??(A??(Fa3)GN??)Ma3)(A??GN??Ma6)Mb4GNb4(Fa6)GN"
        ],
        "carbID": [
          "carbNlink_35449_A"
        ],
        "AN": [
          "null"
        ]
      },
      {
        "code": [
          "GNb4(A??(Fa3)GN??(A??(Fa3)GN??)Ma3)(A??(Fa3)GN??Ma6)Mb4GNb4(Fa6)GN"
        ],
        "carbID": [
          "carbNlink_35432_A"
        ],
        "AN": [
          "null"
        ]
      },
      {
        "code": [
          "A??(Fa3)GN??(A??(Fa3)GN??)Ma3(A??GN??(A??(Fa3)GN??)Ma6)Mb4GNb4(Fa6)GN"
        ],
        "carbID": [
          "carbNlink_35334_A"
        ],
        "AN": [
          "null"
        ]
      },
      {
        "code": [
          "GNb4(A??(Fa3)GN??(A??(Fa3)GN??)Ma3)(A??GN??(A??GN??)Ma6)Mb4GNb4(Fa6)GN"
        ],
        "carbID": [
          "carbNlink_35350_A"
        ],
        "AN": [
          "null"
        ]
      },
      {
        "code": [
          "GNb4(A??(Fa3)GN??(A??(Fa3)GN??)Ma3)(A??(Fa3)GN??(A??GN??)Ma6)Mb4GNb4(Fa6)GN"
        ],
        "carbID": [
          "carbNlink_35349_A"
        ],
        "AN": [
          "null"
        ]
      },
      {
        "code": [
          "GNb4(A??(Fa3)GN??(A??(Fa3)GN??)Ma3)(A??(Fa3)GN??(A??(Fa3)GN??)Ma6)Mb4GNb4(Fa6)GN"
        ],
        "carbID": [
          "carbNlink_35326_A"
        ],
        "AN": [
          "G97564QK"
        ]
      },
      {
        "code": [
          "A??AN"
        ],
        "carbID": [
          "carbOlink_47932_D000"
        ],
        "AN": [
          "G67200RM"
        ]
      },
      {
        "code": [
          "A??AN,GN"
        ],
        "carbID": [
          "carbOlink_35817_A000"
        ],
        "AN": [
          "null"
        ]
      },
      {
        "code": [
          "A??AN,AN"
        ],
        "carbID": [
          "carbOlink_35755_A000"
        ],
        "AN": [
          "null"
        ]
      },
      {
        "code": [
          "A??AN,NN"
        ],
        "carbID": [
          "carbOlink_35827_A000"
        ],
        "AN": [
          "null"
        ]
      },
      {
        "code": [
          "A??AN,NJ"
        ],
        "carbID": [
          "carbOlink_35749_A000"
        ],
        "AN": [
          "null"
        ]
      },
      {
        "code": [
          "NN??A??AN"
        ],
        "carbID": [
          "carbOlink_35718_A"
        ],
        "AN": [
          "G85924HA"
        ]
      },
      {
        "code": [
          "NJ??A??AN"
        ],
        "carbID": [
          "null"
        ],
        "AN": [
          "G04760HF"
        ]
      },
      {
        "code": [
          "A??AN,NN,NJ"
        ],
        "carbID": [
          "carbOlink_35750_A000"
        ],
        "AN": [
          "null"
        ]
      },
      {
        "code": [
          "A??(F??)GN??*"
        ],
        "carbID": [
          "carbOlink_35717_A"
        ],
        "AN": [
          "null"
        ]
      },
      {
        "code": [
          "A??(A??GN??)AN"
        ],
        "carbID": [
          "carbOlink_48269_D000"
        ],
        "AN": [
          "G51057EI"
        ]
      },
      {
        "code": [
          "A??(GN??)AN,GN"
        ],
        "carbID": [
          "carbOlink_35815_A000"
        ],
        "AN": [
          "null"
        ]
      },
      {
        "code": [
          "A??(GN??)AN,AN"
        ],
        "carbID": [
          "carbOlink_35753_A000"
        ],
        "AN": [
          "null"
        ]
      },
      {
        "code": [
          "A??(GN??)AN,NJ"
        ],
        "carbID": [
          "carbOlink_35747_A000"
        ],
        "AN": [
          "null"
        ]
      },
      {
        "code": [
          "NN??A??(NN??)AN"
        ],
        "carbID": [
          "carbOlink_20873_D000"
        ],
        "AN": [
          "G35609TJ"
        ]
      },
      {
        "code": [
          "NJ??A??(NN??)AN"
        ],
        "carbID": [
          "carbOlink_35805_A000"
        ],
        "AN": [
          "G55192YV"
        ]
      },
      {
        "code": [
          "NN??A??(NJ??)AN"
        ],
        "carbID": [
          "carbOlink_35758_A000"
        ],
        "AN": [
          "G39369QQ"
        ]
      },
      {
        "code": [
          "NJ??A??(NJ??)AN"
        ],
        "carbID": [
          "carbOlink_35757_A000"
        ],
        "AN": [
          "G28378DY"
        ]
      },
      {
        "code": [
          "A??((F??)GN??)AN"
        ],
        "carbID": [
          "carbOlink_35760_A000"
        ],
        "AN": [
          "null"
        ]
      },
      {
        "code": [
          "A??(A??GN??)AN,A"
        ],
        "carbID": [
          "carbOlink_35723_A000"
        ],
        "AN": [
          "null"
        ]
      },
      {
        "code": [
          "A??(A??GN??)AN,NJ"
        ],
        "carbID": [
          "carbOlink_35748_A000"
        ],
        "AN": [
          "null"
        ]
      },
      {
        "code": [
          "A??(A??GN??)AN,GN"
        ],
        "carbID": [
          "null"
        ],
        "AN": [
          "null"
        ]
      },
      {
        "code": [
          "A??(A??GN??)AN,AN"
        ],
        "carbID": [
          "null"
        ],
        "AN": [
          "null"
        ]
      },
      {
        "code": [
          "A??(A??GN??)AN,NN"
        ],
        "carbID": [
          "carbOlink_35824_A000"
        ],
        "AN": [
          "null"
        ]
      },
      {
        "code": [
          "A??(A??(F??)GN??)AN"
        ],
        "carbID": [
          "carbOlink_35761_A000"
        ],
        "AN": [
          "G23368XB"
        ]
      },
      {
        "code": [
          "A??(A??GN??)AN,A,GN"
        ],
        "carbID": [
          "carbOlink_35812_A000"
        ],
        "AN": [
          "null"
        ]
      },
      {
        "code": [
          "A??(A??GN??)AN,A,AN"
        ],
        "carbID": [
          "carbOlink_35751_A000"
        ],
        "AN": [
          "null"
        ]
      },
      {
        "code": [
          "GN??A??(A??(F??)GN??)AN"
        ],
        "carbID": [
          "carbOlink_35766_A000"
        ],
        "AN": [
          "G99146BF"
        ]
      },
      {
        "code": [
          "AN??A??(A??(F??)GN??)AN"
        ],
        "carbID": [
          "carbOlink_35765_A000"
        ],
        "AN": [
          "G80055EX"
        ]
      }
    ]
  }
}