{
  "result": {
    "item": [
      {
        "code": [
          "GN??Ma3(Ma3Ma6)Mb4GNb4GN"
        ],
        "carbID": [
          "carbNlink_35542_A"
        ],
        "AN": [
          "G59522PY"
        ]
      },
      {
        "code": [
          "Ma3(Ma3(Ma6)Ma6)Mb4GNb4GN"
        ],
        "carbID": [
          "carbNlink_20482_D000"
        ],
        "AN": [
          "G03652TR"
        ]
      },
      {
        "code": [
          "GN??Ma3(GN??Ma6)Mb4GNb4GN"
        ],
        "carbID": [
          "carbNlink_35551_A"
        ],
        "AN": [
          "G14606UO"
        ]
      },
      {
        "code": [
          "Ma2Ma3(Ma3(Ma6)Ma6)Mb4GNb4GN"
        ],
        "carbID": [
          "carbNlink_40082_D000"
        ],
        "AN": [
          "G19747OA"
        ]
      },
      {
        "code": [
          "A??GN??Ma3(GN??Ma6)Mb4GNb4GN"
        ],
        "carbID": [
          "carbNlink_35552_A"
        ],
        "AN": [
          "G55530MC"
        ]
      },
      {
        "code": [
          "GN??Ma3(Ma3Ma6)Mb4GNb4(Fa6)GN"
        ],
        "carbID": [
          "carbNlink_35407_A"
        ],
        "AN": [
          "G68013TU"
        ]
      },
      {
        "code": [
          "GN??Ma3(GN??Ma6)Mb4GNb4(Fa6)GN"
        ],
        "carbID": [
          "carbNlink_35426_A"
        ],
        "AN": [
          "G58886BN"
        ]
      },
      {
        "code": [
          "Ma2Ma3(Ma3(Ma6)Ma6)Mb4GNb4GN,M"
        ],
        "carbID": [
          "carbNlink_35062_A"
        ],
        "AN": [
          "null"
        ]
      },
      {
        "code": [
          "GNb4(GN??Ma3)(GN??Ma6)Mb4GNb4GN"
        ],
        "carbID": [
          "carbNlink_35547_A"
        ],
        "AN": [
          "G90484GL"
        ]
      },
      {
        "code": [
          "A??GN??Ma3(A??GN??Ma6)Mb4GNb4GN"
        ],
        "carbID": [
          "carbNlink_35563_A"
        ],
        "AN": [
          "G58521VQ"
        ]
      },
      {
        "code": [
          "A??GN??Ma3(Ma3(Ma6)Ma6)Mb4GNb4GN"
        ],
        "carbID": [
          "carbNlink_35523_A"
        ],
        "AN": [
          "G27300LL"
        ]
      },
      {
        "code": [
          "Ma2Ma3(Ma3(Ma6)Ma6)Mb4GNb4GN,M,M"
        ],
        "carbID": [
          "carbNlink_35061_A"
        ],
        "AN": [
          "null"
        ]
      },
      {
        "code": [
          "GNb4(A??GN??Ma3)(GN??Ma6)Mb4GNb4GN"
        ],
        "carbID": [
          "carbNlink_35548_A"
        ],
        "AN": [
          "G74246AM"
        ]
      },
      {
        "code": [
          "GNb4(GN??Ma3)(GN??Ma6)Mb4GNb4(Fa6)GN"
        ],
        "carbID": [
          "carbNlink_35418_A"
        ],
        "AN": [
          "G58284AM"
        ]
      },
      {
        "code": [
          "A??GN??Ma3(A??GN??Ma6)Mb4GNb4(Fa6)GN"
        ],
        "carbID": [
          "carbNlink_35470_A"
        ],
        "AN": [
          "G94873VZ"
        ]
      },
      {
        "code": [
          "GNb4(A??GN??Ma3)(A??GN??Ma6)Mb4GNb4GN"
        ],
        "carbID": [
          "carbNlink_35557_A"
        ],
        "AN": [
          "G54341KJ"
        ]
      },
      {
        "code": [
          "Ma2Ma2Ma3(Ma2Ma3(Ma2Ma6)Ma6)Mb4GNb4GN"
        ],
        "carbID": [
          "carbNlink_30017_A"
        ],
        "AN": [
          "G56202TA"
        ]
      },
      {
        "code": [
          "GNb4(A??GN??Ma3)(GN??Ma6)Mb4GNb4(Fa6)GN"
        ],
        "carbID": [
          "carbNlink_35422_A"
        ],
        "AN": [
          "G61500DM"
        ]
      },
      {
        "code": [
          "NJ??A??GN??Ma3(NJ??A??GN??Ma6)Mb4GNb4GN"
        ],
        "carbID": [
          "carbNlink_35573_A"
        ],
        "AN": [
          "G57914GV"
        ]
      },
      {
        "code": [
          "A??GN??(A??GN??)Ma3(A??GN??Ma6)Mb4GNb4GN"
        ],
        "carbID": [
          "carbNlink_35559_A"
        ],
        "AN": [
          "G27763JP"
        ]
      },
      {
        "code": [
          "NJ??A??GN??Ma3(A??GN??Ma6)Mb4GNb4(Fa6)GN"
        ],
        "carbID": [
          "carbNlink_35473_A"
        ],
        "AN": [
          "G71341VM"
        ]
      },
      {
        "code": [
          "NN??A??GN??Ma3(A??GN??Ma6)Mb4GNb4(Fa6)GN"
        ],
        "carbID": [
          "carbNlink_35474_A"
        ],
        "AN": [
          "G15687DE"
        ]
      },
      {
        "code": [
          "A??GN??(A??GN??)Ma3(Ma3(Ma6)Ma6)Mb4GNb4GN"
        ],
        "carbID": [
          "carbNlink_35519_A"
        ],
        "AN": [
          "null"
        ]
      },
      {
        "code": [
          "GNb4(A??GN??Ma3)(A??GN??Ma6)Mb4GNb4(Fa6)GN"
        ],
        "carbID": [
          "carbNlink_35456_A"
        ],
        "AN": [
          "G81348LS"
        ]
      },
      {
        "code": [
          "GNb4(NN??A??GN??Ma3)(Ma3(Ma6)Ma6)Mb4GNb4GN"
        ],
        "carbID": [
          "carbNlink_35558_A"
        ],
        "AN": [
          "G50791ES"
        ]
      },
      {
        "code": [
          "GNb4(A??GN??Ma3)(Ma3(Ma6)Ma6)Mb4GNb4(Fa6)GN"
        ],
        "carbID": [
          "carbNlink_35292_A"
        ],
        "AN": [
          "G17960CK"
        ]
      },
      {
        "code": [
          "NJ??A??GN??Ma3(A??A??GN??Ma6)Mb4GNb4(Fa6)GN"
        ],
        "carbID": [
          "carbNlink_35490_A"
        ],
        "AN": [
          "null"
        ]
      },
      {
        "code": [
          "NN??A??GN??Ma3(NJ??A??GN??Ma6)Mb4GNb4(Fa6)GN"
        ],
        "carbID": [
          "carbNlink_35499_A"
        ],
        "AN": [
          "null"
        ]
      },
      {
        "code": [
          "NJ??A??GN??Ma3(NJ??A??GN??Ma6)Mb4GNb4(Fa6)GN"
        ],
        "carbID": [
          "carbNlink_35498_A"
        ],
        "AN": [
          "null"
        ]
      },
      {
        "code": [
          "A??GN??(A??GN??)Ma3(A??GN??Ma6)Mb4GNb4(Fa6)GN"
        ],
        "carbID": [
          "carbNlink_35461_A"
        ],
        "AN": [
          "G61698UE"
        ]
      },
      {
        "code": [
          "NN??A??GN??(A??GN??)Ma3(Ma3(Ma6)Ma6)Mb4GNb4GN"
        ],
        "carbID": [
          "carbNlink_35520_A"
        ],
        "AN": [
          "null"
        ]
      },
      {
        "code": [
          "GNb4(A??GN??(A??GN??)Ma3)(A??GN??Ma6)Mb4GNb4GN"
        ],
        "carbID": [
          "carbNlink_35556_A"
        ],
        "AN": [
          "null"
        ]
      },
      {
        "code": [
          "A??GN??(A??GN??)Ma3(Ma3(Ma6)Ma6)Mb4GNb4(Fa6)GN"
        ],
        "carbID": [
          "carbNlink_35295_A"
        ],
        "AN": [
          "G24977IR"
        ]
      },
      {
        "code": [
          "NN??A??GN??(A??GN??)Ma3(A??A??GN??Ma6)Mb4GNb4GN"
        ],
        "carbID": [
          "carbNlink_35642_A"
        ],
        "AN": [
          "null"
        ]
      },
      {
        "code": [
          "A??GN??(A??GN??)Ma3(A??GN??(A??GN??)Ma6)Mb4GNb4GN"
        ],
        "carbID": [
          "carbNlink_35595_A"
        ],
        "AN": [
          "null"
        ]
      },
      {
        "code": [
          "NN??A??GN??(NN??A??GN??)Ma3(Ma3(Ma6)Ma6)Mb4GNb4GN"
        ],
        "carbID": [
          "carbNlink_35652_A"
        ],
        "AN": [
          "null"
        ]
      },
      {
        "code": [
          "GNb4(NN??A??GN??(A??GN??)Ma3)(Ma3(Ma6)Ma6)Mb4GNb4GN"
        ],
        "carbID": [
          "carbNlink_35620_A"
        ],
        "AN": [
          "null"
        ]
      },
      {
        "code": [
          "NN??A??GN??(NN??A??GN??)Ma3(A??A??GN??Ma6)Mb4GNb4GN"
        ],
        "carbID": [
          "carbNlink_35568_A"
        ],
        "AN": [
          "null"
        ]
      },
      {
        "code": [
          "GNb4(NN??A??GN??(NN??A??GN??)Ma3)(Ma3(Ma6)Ma6)Mb4GNb4GN"
        ],
        "carbID": [
          "carbNlink_35623_A"
        ],
        "AN": [
          "null"
        ]
      },
      {
        "code": [
          "A??GN??(A??GN??)Ma3(A??GN??(A??GN??)Ma6)Mb4GNb4GN,NN,NN"
        ],
        "carbID": [
          "null"
        ],
        "AN": [
          "null"
        ]
      },
      {
        "code": [
          "A??GN??A??GN??(A??GN??)Ma3(A??GN??(A??GN??)Ma6)Mb4GNb4GN"
        ],
        "carbID": [
          "carbNlink_35224_A"
        ],
        "AN": [
          "null"
        ]
      },
      {
        "code": [
          "A??GN??(A??GN??)Ma3(A??GN??(A??GN??)Ma6)Mb4GNb4(Fa6)GN,NN,NN"
        ],
        "carbID": [
          "null"
        ],
        "AN": [
          "null"
        ]
      },
      {
        "code": [
          "A??AN"
        ],
        "carbID": [
          "carbOlink_47932_D000"
        ],
        "AN": [
          "G67200RM"
        ]
      },
      {
        "code": [
          "A??AN,GN"
        ],
        "carbID": [
          "carbOlink_35817_A000"
        ],
        "AN": [
          "null"
        ]
      },
      {
        "code": [
          "A??AN,AN"
        ],
        "carbID": [
          "carbOlink_35755_A000"
        ],
        "AN": [
          "null"
        ]
      },
      {
        "code": [
          "A??AN,GN"
        ],
        "carbID": [
          "carbOlink_35817_A000"
        ],
        "AN": [
          "null"
        ]
      },
      {
        "code": [
          "A??AN,AN"
        ],
        "carbID": [
          "carbOlink_35755_A000"
        ],
        "AN": [
          "null"
        ]
      },
      {
        "code": [
          "A??AN,NN"
        ],
        "carbID": [
          "carbOlink_35827_A000"
        ],
        "AN": [
          "null"
        ]
      },
      {
        "code": [
          "A??AN,NJ"
        ],
        "carbID": [
          "carbOlink_35749_A000"
        ],
        "AN": [
          "null"
        ]
      },
      {
        "code": [
          "NN??A??AN"
        ],
        "carbID": [
          "carbOlink_35718_A"
        ],
        "AN": [
          "G85924HA"
        ]
      },
      {
        "code": [
          "A??(NN??)AN"
        ],
        "carbID": [
          "carbOlink_35802_A"
        ],
        "AN": [
          "G88486YW"
        ]
      },
      {
        "code": [
          "A??(A??GN??)AN"
        ],
        "carbID": [
          "carbOlink_48269_D000"
        ],
        "AN": [
          "G51057EI"
        ]
      },
      {
        "code": [
          "A??(GN??)AN,GN"
        ],
        "carbID": [
          "carbOlink_35815_A000"
        ],
        "AN": [
          "null"
        ]
      },
      {
        "code": [
          "A??(GN??)AN,AN"
        ],
        "carbID": [
          "carbOlink_35753_A000"
        ],
        "AN": [
          "null"
        ]
      },
      {
        "code": [
          "NN??A??(GN??)AN"
        ],
        "carbID": [
          "carbOlink_35759_A"
        ],
        "AN": [
          "G55507CF"
        ]
      },
      {
        "code": [
          "NN??A??(NN??)AN"
        ],
        "carbID": [
          "carbOlink_20873_D000"
        ],
        "AN": [
          "G35609TJ"
        ]
      },
      {
        "code": [
          "A??(A??GN??)AN,A"
        ],
        "carbID": [
          "carbOlink_35723_A000"
        ],
        "AN": [
          "null"
        ]
      },
      {
        "code": [
          "A??(A??GN??)AN,GN"
        ],
        "carbID": [
          "null"
        ],
        "AN": [
          "null"
        ]
      },
      {
        "code": [
          "A??(A??GN??)AN,AN"
        ],
        "carbID": [
          "null"
        ],
        "AN": [
          "null"
        ]
      },
      {
        "code": [
          "A??(A??GN??)AN,NN"
        ],
        "carbID": [
          "carbOlink_35824_A000"
        ],
        "AN": [
          "null"
        ]
      },
      {
        "code": [
          "A??(A??GN??)AN,GN"
        ],
        "carbID": [
          "null"
        ],
        "AN": [
          "null"
        ]
      },
      {
        "code": [
          "A??(A??GN??)AN,AN"
        ],
        "carbID": [
          "null"
        ],
        "AN": [
          "null"
        ]
      },
      {
        "code": [
          "A??(A??GN??)AN,NJ"
        ],
        "carbID": [
          "carbOlink_35748_A000"
        ],
        "AN": [
          "null"
        ]
      },
      {
        "code": [
          "A??(A??(F??)GN??)AN"
        ],
        "carbID": [
          "carbOlink_35761_A000"
        ],
        "AN": [
          "G23368XB"
        ]
      },
      {
        "code": [
          "NN??A??(GN??GN??)AN"
        ],
        "carbID": [
          "carbOlink_35800_A"
        ],
        "AN": [
          "G07082VU"
        ]
      },
      {
        "code": [
          "NN??A??(AN??GN??)AN"
        ],
        "carbID": [
          "carbOlink_35798_A"
        ],
        "AN": [
          "G35326EH"
        ]
      },
      {
        "code": [
          "A??(A??GN??)AN,A,GN"
        ],
        "carbID": [
          "carbOlink_35812_A000"
        ],
        "AN": [
          "null"
        ]
      },
      {
        "code": [
          "A??(A??GN??)AN,A,AN"
        ],
        "carbID": [
          "carbOlink_35751_A000"
        ],
        "AN": [
          "null"
        ]
      },
      {
        "code": [
          "A??(AN??(NN??)A??GN??)AN"
        ],
        "carbID": [
          "carbOlink_35778_A"
        ],
        "AN": [
          "G26816AP"
        ]
      }
    ]
  }
}